// PS4	XBOX
0	None	None
1	X	A
2	△	Y
4	◯	B
8	▢	X
16	Left	Left
32	Right	Right
64	Up	Up
128	Down	Down
256	Options	Menu
512	L1	LB
1024	R1	RB
2048	L2	LT
4096	R2	RT
8192	L3	Left Stick Click
16384	R3	Right Stick Click
32768	Right Stick Left	Right Stick Left
65536	Right Stick Right	Right Stick Right
131072	Right Stick Up	Right Stick Up
262144	Right Stick Down	Right Stick Down
524288	Special	Special
1048576	Action1	Action1
2097152	Action2	Action2
4194304	Action3	Action3
8388608	Action4	Action4
16777216	Action5	Action5
33554432	Action6	Action6
67108864	Action7	Action7
134217728	Action8	Action8
268435456	Action9	Action9
536870912	Action10	Action10
1073741824	Action11	Action11
2147483648	Action12	Action12